Date,Time,CPUUser
20100703,07:27:20,8
20100703,07:27:30,3
20100703,07:27:40,8
20100703,07:27:50,1
20100703,07:28:00,1
20100703,07:28:10,21
20100703,07:28:20,7
20100703,07:28:30,35
20100703,07:28:40,47
20100703,07:28:50,10
20100703,07:29:00,1
20100703,07:29:10,3
20100703,07:29:20,1
20100703,07:29:30,1
20100703,07:29:40,22
20100703,07:29:50,1
20100703,07:30:00,1
20100703,07:30:10,3
20100703,07:30:20,16
20100703,07:30:30,3
20100703,07:30:40,1
20100703,07:30:50,8
20100703,07:31:00,16
20100703,07:31:10,71
20100703,07:31:20,41
20100703,07:31:30,33
20100703,07:31:40,20
20100703,07:31:50,48
20100703,07:32:00,11
20100703,07:32:10,61
20100703,07:32:20,18
20100703,07:32:30,63
20100703,07:32:40,7
20100703,07:32:50,22
20100703,07:33:00,4
20100703,07:33:10,10
20100703,07:33:20,16
20100703,07:33:30,11
20100703,07:33:40,27
20100703,07:33:50,14
20100703,07:34:00,22
20100703,07:34:10,6
20100703,07:34:20,1
20100703,07:34:30,1
20100703,07:34:40,1
20100703,07:34:50,2
20100703,07:35:00,59
20100703,07:35:10,37
20100703,07:35:20,12
20100703,07:35:30,7
20100703,07:35:40,8
20100703,07:35:50,13
20100703,07:36:00,9
20100703,07:36:10,11
20100703,07:36:20,21
20100703,07:36:30,8
20100703,07:36:40,8
20100703,07:36:50,11
20100703,07:37:00,28
20100703,07:37:10,12
20100703,07:37:20,11
20100703,07:37:30,3
20100703,07:37:40,3
20100703,07:37:50,7
20100703,07:38:00,2
20100703,07:38:10,12
20100703,07:38:20,6
20100703,07:38:30,3
20100703,07:38:40,4
20100703,07:38:50,4
20100703,07:39:00,2
20100703,07:39:10,6
20100703,07:39:20,1
20100703,07:39:30,2
20100703,07:39:40,2
20100703,07:39:50,2
20100703,07:40:00,2
20100703,07:40:10,3
20100703,07:40:20,1
20100703,07:40:30,1
20100703,07:40:40,1
20100703,07:40:50,1
20100703,07:41:00,1
20100703,07:41:10,5
20100703,07:41:20,1
20100703,07:41:30,2
20100703,07:41:40,1
20100703,07:41:50,1
20100703,07:42:00,1
20100703,07:42:10,4
20100703,07:42:20,2
20100703,07:42:30,1
20100703,07:42:40,1
20100703,07:42:50,1
20100703,07:43:00,1
20100703,07:43:10,3
20100703,07:43:20,1
20100703,07:43:30,1
20100703,07:43:40,1
20100703,07:43:50,1
20100703,07:44:00,1
20100703,07:44:10,4
20100703,07:44:20,2
20100703,07:44:30,1
20100703,07:44:40,1
20100703,07:44:50,1
20100703,07:45:00,2
20100703,07:45:10,5
20100703,07:45:20,1
20100703,07:45:30,1
20100703,07:45:40,1
20100703,07:45:50,1
20100703,07:46:00,1
20100703,07:46:10,5
20100703,07:46:20,1
20100703,07:46:30,1
20100703,07:46:40,1
20100703,07:46:50,1
20100703,07:47:00,1
20100703,07:47:10,3
20100703,07:47:20,1
20100703,07:47:30,1
20100703,07:47:40,1
20100703,07:47:50,1
20100703,07:48:00,1
20100703,07:48:10,3
20100703,07:48:20,1
20100703,07:48:30,1
20100703,07:48:40,1
20100703,07:48:50,1
20100703,07:49:00,1
20100703,07:49:10,3
20100703,07:49:20,1
20100703,07:49:30,1
20100703,07:49:40,1
20100703,07:49:50,5
20100703,07:50:00,1
20100703,07:50:10,3
20100703,07:50:20,1
20100703,07:50:30,1
20100703,07:50:40,1
20100703,07:50:50,1
20100703,07:51:00,1
20100703,07:51:10,4
20100703,07:51:20,1
20100703,07:51:30,1
20100703,07:51:40,1
20100703,07:51:50,1
20100703,07:52:00,1
20100703,07:52:10,3
20100703,07:52:20,1
20100703,07:52:30,1
20100703,07:52:40,1
20100703,07:52:50,1
20100703,07:53:00,1
20100703,07:53:10,3
20100703,07:53:20,1
20100703,07:53:30,1
20100703,07:53:40,1
20100703,07:53:50,1
20100703,07:54:00,1
20100703,07:54:10,3
20100703,07:54:20,1
20100703,07:54:30,1
20100703,07:54:40,1
20100703,07:54:50,1
20100703,07:55:00,1
20100703,07:55:10,3
20100703,07:55:20,1
20100703,07:55:30,1
20100703,07:55:40,1
20100703,07:55:50,1
20100703,07:56:00,1
20100703,07:56:10,4
20100703,07:56:20,1
20100703,07:56:30,1
20100703,07:56:40,1
20100703,07:56:50,1
20100703,07:57:00,1
20100703,07:57:10,3
20100703,07:57:20,1
20100703,07:57:30,1
20100703,07:57:40,1
20100703,07:57:50,1
20100703,07:58:00,1
20100703,07:58:10,3
20100703,07:58:20,1
20100703,07:58:30,1
20100703,07:58:40,1
20100703,07:58:50,1
20100703,07:59:00,1
20100703,07:59:10,3
20100703,07:59:20,1
20100703,07:59:30,1
20100703,07:59:40,1
20100703,07:59:50,1
20100703,08:00:00,1
20100703,08:00:10,3
20100703,08:00:20,1
20100703,08:00:30,1
20100703,08:00:40,1
20100703,08:00:50,1
20100703,08:01:00,1
20100703,08:01:10,4
20100703,08:01:20,1
20100703,08:01:30,1
20100703,08:01:40,1
20100703,08:01:50,1
20100703,08:02:00,1
20100703,08:02:10,3
20100703,08:02:20,1
20100703,08:02:30,1
20100703,08:02:40,1
20100703,08:02:50,1
20100703,08:03:00,1
20100703,08:03:10,3
20100703,08:03:20,1
20100703,08:03:30,1
20100703,08:03:40,1
20100703,08:03:50,3
20100703,08:04:00,18
20100703,08:04:10,69
20100703,08:04:20,22
20100703,08:04:30,39
20100703,08:04:40,27
20100703,08:04:50,19
20100703,08:05:00,26
20100703,08:05:10,20
20100703,08:05:20,14
20100703,08:05:30,2
20100703,08:05:40,1
20100703,08:05:50,1
20100703,08:06:00,29
20100703,08:06:10,19
20100703,08:06:20,8
20100703,08:06:30,3
20100703,08:06:40,21
20100703,08:06:50,39
20100703,08:07:00,20
20100703,08:07:10,3
20100703,08:07:20,22
20100703,08:07:30,14
20100703,08:07:40,51
20100703,08:07:50,57
20100703,08:08:00,28
20100703,08:08:10,74
20100703,08:08:20,22
20100703,08:08:30,4
20100703,08:08:40,1
20100703,08:08:50,3
20100703,08:09:00,2
20100703,08:09:10,66
20100703,08:09:20,60
20100703,08:09:30,30
20100703,08:09:40,2
20100703,08:09:50,2
20100703,08:10:00,8
20100703,08:10:10,12
20100703,08:10:20,25
20100703,08:10:30,3
20100703,08:10:40,46
20100703,08:10:50,2
20100703,08:11:00,2
20100703,08:11:10,4
20100703,08:11:20,21
20100703,08:11:30,4
20100703,08:11:40,1
20100703,08:11:50,1
20100703,08:12:00,1
20100703,08:12:10,3
20100703,08:12:20,3
20100703,08:12:30,1
20100703,08:12:40,1
20100703,08:12:50,1
20100703,08:13:00,1
20100703,08:13:10,3
20100703,08:13:20,1
20100703,08:13:30,1
20100703,08:13:40,1
20100703,08:13:50,1
20100703,08:14:00,3
20100703,08:14:10,4
20100703,08:14:20,2
20100703,08:14:30,1
20100703,08:14:40,3
20100703,08:14:50,1
20100703,08:15:00,1
20100703,08:15:10,3
20100703,08:15:20,3
20100703,08:15:30,1
20100703,08:15:40,1
20100703,08:15:50,1
20100703,08:16:00,1
20100703,08:16:10,6
20100703,08:16:20,3
20100703,08:16:30,3
20100703,08:16:40,1
20100703,08:16:50,2
20100703,08:17:00,1
20100703,08:17:10,4
20100703,08:17:20,2
20100703,08:17:30,2
20100703,08:17:40,1
20100703,08:17:50,1
20100703,08:18:00,1
20100703,08:18:10,3
20100703,08:18:20,3
20100703,08:18:30,1
20100703,08:18:40,1
20100703,08:18:50,1
20100703,08:19:00,1
20100703,08:19:10,4
20100703,08:19:20,1
20100703,08:19:30,1
20100703,08:19:40,1
20100703,08:19:50,1
20100703,08:20:00,1
20100703,08:20:10,4
20100703,08:20:20,2
20100703,08:20:30,1
20100703,08:20:40,1
20100703,08:20:50,1
20100703,08:21:00,1
20100703,08:21:10,5
20100703,08:21:20,1
20100703,08:21:30,3
20100703,08:21:40,1
20100703,08:21:50,6
20100703,08:22:00,9
20100703,08:22:10,27
20100703,08:22:20,13
20100703,08:22:30,7
20100703,08:22:40,2
20100703,08:22:50,8
20100703,08:23:00,4
20100703,08:23:10,9
20100703,08:23:20,2
20100703,08:23:30,18
20100703,08:23:40,7
20100703,08:23:50,9
20100703,08:24:00,16
20100703,08:24:10,12
20100703,08:24:20,6
20100703,08:24:30,7
20100703,08:24:40,4
20100703,08:24:50,1
20100703,08:25:00,2
20100703,08:25:10,15
20100703,08:25:20,24
20100703,08:25:30,6
20100703,08:25:40,3
20100703,08:25:50,2
20100703,08:26:00,2
20100703,08:26:10,21
20100703,08:26:20,44
20100703,08:26:30,36
20100703,08:26:40,25
20100703,08:26:50,20
20100703,08:27:00,20
20100703,08:27:10,73
