Date,Time,DSKReadKBTot
20100703,08:26:20,280
20100703,08:26:30,178
20100703,08:26:40,94
20100703,08:26:50,9
20100703,08:27:00,401
20100703,08:27:10,1517
20100703,08:27:20,40
20100703,08:27:30,4
20100703,08:27:40,0
20100703,08:27:50,92
20100703,08:28:00,0
20100703,08:28:10,720
