#Date, Time, memFree, memUsed
20100703, 08:26:20, 822.457, 685.094
20100703, 08:26:30, 810.09, 697.461
20100703, 08:26:40, 804.707, 702.844
20100703, 08:26:50, 806.898, 700.652
20100703, 08:27:00, 803.996, 703.555
20100703, 08:27:10, 780.508, 727.043
20100703, 08:27:20, 764.605, 742.945
20100703, 08:27:30, 773.039, 734.512
20100703, 08:27:40, 773.289, 734.262
20100703, 08:27:50, 771.711, 735.84
20100703, 08:28:00, 771.48, 736.07
20100703, 08:28:10, 788.98, 718.57
