/* XPM */
static char *dummy[]={
"32 32 9 1",
"b c #000040",
"e c #0000ff",
"d c #0058c0",
"a c #008000",
"f c #008080",
"# c #00c000",
"g c #404000",
"c c #ff0000",
". c #ffffff",
".........#######................",
".#######.#aaaaa#..b...b.bbb.bb..",
".#aaaaa#.#aaaaa#..b...b.b...b.b.",
".#aaaaa#.#######..b...b.bbb.b.b.",
".#######....a......b.b..b...bb..",
"....a....#######....b...bbb.b...",
".#######.#####c#................",
".#####c#.#######....dd..........",
".#######..dd.......dddd.........",
"........dddddd....dddddd........",
".....edddddddddddddddddd........",
"....dd..d.ddd.dd.d.d..ddd.......",
"...ed..dd.dd...d.d.d.d.ddd......",
"..eed.ddd.dd.d.d.d.d.d.dddd.....",
"...ed...d..d...d...d..ddddd.....",
"....edddddddddddddddddddddd.....",
".......ddddddddddddddddddd......",
".......dddddddd..ddddddd........",
"........dddddd.....ddd..........",
".........dddd...................",
"................................",
".ccc..c..c..c.ccc.cc...c..c.c...",
".c...c.c.cc.c..c..c.c.c.c.c.c...",
".c...c.c.c.cc..c..c.c.c.c.c.c...",
".c...c.c.c..c..c..cc..ccc.c.c...",
".c...c.c.c..c..c..c.c.c.c.c.c...",
".ccc..c..c..c..c..c.c.c.c.c.ccc.",
"................................",
".ffffffffffffffffffffffffffffff.",
".ffffffffffffffffffffffffffffff.",
".gggggggggggggggggggggggggggggg.",
"................................"};
