Date,Time,CPUUser
20100413,08:07:50,1
20100413,08:08:00,1
20100413,08:08:10,2
20100413,08:08:20,1
20100413,08:08:30,4
20100413,08:08:40,1
20100413,08:08:50,1
20100413,08:09:00,2
20100413,08:09:10,72
20100413,08:09:20,81
20100413,08:09:30,76
20100413,08:09:40,53
