\relax 
\@writefile{toc}{\contentsline {chapter}{Abstract}{5}}
\citation{AmazonCaseStudies}
\citation{SotomayorMontero2009}
\@writefile{toc}{\contentsline {chapter}{\numberline {1}Introduction}{7}}
\@writefile{lof}{\addvspace {10\p@ }}
\@writefile{lot}{\addvspace {10\p@ }}
\newlabel{chap:intro}{{1}{7}}
\citation{IPsec}
\citation{Libvirt}
\citation{OpenVPN}
\citation{OpenSSL}
\@writefile{toc}{\contentsline {chapter}{\numberline {2}Virtual cluster networks and related work}{9}}
\@writefile{lof}{\addvspace {10\p@ }}
\@writefile{lot}{\addvspace {10\p@ }}
\newlabel{chap:relwork}{{2}{9}}
\@writefile{toc}{\contentsline {section}{\numberline {2.1}Technologies}{9}}
\@writefile{toc}{\contentsline {subsection}{\numberline {2.1.1}OpenVPN}{9}}
\citation{LZO}
\citation{IPsec}
\citation{IPsec}
\citation{AH}
\citation{ESP1}
\@writefile{toc}{\contentsline {subsection}{\numberline {2.1.2}IPsec}{10}}
\citation{BhatiaMotiwala2008}
\citation{TsugawaFortes2006}
\citation{RekhterMoskowitz1996}
\@writefile{toc}{\contentsline {subsubsection}{\numberline {2.1.2.1}Internet Key Exchange protocol}{11}}
\@writefile{toc}{\contentsline {section}{\numberline {2.2}Related work}{11}}
\citation{AmazonVPCFAQ}
\citation{OpenNebula}
\citation{Libvirt}
\citation{Sotomayor2008}
\citation{Racoon}
\citation{Fabfile}
\@writefile{toc}{\contentsline {chapter}{\numberline {3}Virtual Cluster Network configuration}{15}}
\@writefile{lof}{\addvspace {10\p@ }}
\@writefile{lot}{\addvspace {10\p@ }}
\newlabel{chap:virtualclusterconfiguration}{{3}{15}}
\@writefile{toc}{\contentsline {section}{\numberline {3.1}Communication and the security layer}{16}}
\@writefile{lof}{\contentsline {figure}{\numberline {3.1}{\ignorespaces Communication between two virtual machine endpoints.\relax }}{16}}
\providecommand*\caption@xref[2]{\@setref\relax\@undefined{#1}}
\newlabel{fig:Communication}{{3.1}{16}}
\citation{Tanenbaum1988}
\citation{Tanenbaum1988}
\@writefile{lof}{\contentsline {figure}{\numberline {3.2}{\ignorespaces Security layer with regards to two communicating endpoints.\relax }}{18}}
\newlabel{fig:SecurityLayer}{{3.2}{18}}
\@writefile{toc}{\contentsline {section}{\numberline {3.2}Master node}{18}}
\@writefile{lof}{\contentsline {figure}{\numberline {3.3}{\ignorespaces Master node's role in managing virtual clusters.\relax }}{18}}
\newlabel{fig:masternode}{{3.3}{18}}
\citation{Fabfile}
\@writefile{toc}{\contentsline {section}{\numberline {3.3}Python Fabric tool}{19}}
\@writefile{toc}{\contentsline {section}{\numberline {3.4}Creation}{19}}
\@writefile{lof}{\contentsline {figure}{\numberline {3.4}{\ignorespaces Resources for virtual clusters.\relax }}{20}}
\newlabel{fig:creation1}{{3.4}{20}}
\@writefile{lof}{\contentsline {figure}{\numberline {3.5}{\ignorespaces IP address assignments and packet routing.\relax }}{21}}
\newlabel{fig:creation2}{{3.5}{21}}
\@writefile{lof}{\contentsline {figure}{\numberline {3.6}{\ignorespaces Three virtual machines virtual cluster.\relax }}{22}}
\newlabel{fig:creation4}{{3.6}{22}}
\@writefile{toc}{\contentsline {section}{\numberline {3.5}Merging}{22}}
\@writefile{lof}{\contentsline {figure}{\numberline {3.7}{\ignorespaces Remote merge.\relax }}{23}}
\newlabel{fig:remotemerge}{{3.7}{23}}
\@writefile{toc}{\contentsline {section}{\numberline {3.6}Deletion}{23}}
\@writefile{toc}{\contentsline {chapter}{\numberline {4}Evaluation}{25}}
\@writefile{lof}{\addvspace {10\p@ }}
\@writefile{lot}{\addvspace {10\p@ }}
\newlabel{chap:evaluation}{{4}{25}}
\@writefile{toc}{\contentsline {section}{\numberline {4.1}Implementation performance evaluation}{26}}
\@writefile{toc}{\contentsline {section}{\numberline {4.2}Transport mode evaluation}{27}}
\@writefile{lot}{\contentsline {table}{\numberline {4.1}{\ignorespaces IPsec transport mode performance measurements with various encryption algorithms with and without IKE clients.\relax }}{28}}
\newlabel{fig:IPsecTransport}{{4.1}{28}}
\@writefile{lot}{\contentsline {table}{\numberline {4.2}{\ignorespaces OpenVPN transport mode performance measurements with various encryption algorithms.\relax }}{29}}
\newlabel{fig:OpenVPNTransport}{{4.2}{29}}
\@writefile{toc}{\contentsline {section}{\numberline {4.3}Tunnel mode evaluation}{29}}
\@writefile{lot}{\contentsline {table}{\numberline {4.3}{\ignorespaces IPsec tunnel mode performance measurements with various encryption algorithms with and without IKE clients.\relax }}{30}}
\newlabel{fig:IPsecTunnel}{{4.3}{30}}
\@writefile{lot}{\contentsline {table}{\numberline {4.4}{\ignorespaces OpenVPN tunnel mode performance measurements with various encryption algorithms.\relax }}{30}}
\newlabel{fig:OpenVPNTunnel}{{4.4}{30}}
\@writefile{lot}{\contentsline {table}{\numberline {4.5}{\ignorespaces Direct comparison of bandwidth and round-trip latency for transport and tunnel mode with IPsec and OpenVPN with the AES encryption algorithm.\relax }}{31}}
\newlabel{fig:Comparisson}{{4.5}{31}}
\@writefile{toc}{\contentsline {section}{\numberline {4.4}Scalability evaluation}{31}}
\@writefile{lot}{\contentsline {table}{\numberline {4.6}{\ignorespaces IPsec tunnel mode performance measurements with various encryption algorithms and many security associations and policies.\relax }}{32}}
\newlabel{fig:ExtraAssoc}{{4.6}{32}}
\@writefile{lot}{\contentsline {table}{\numberline {4.7}{\ignorespaces IPsec tunnel mode stress test with all virtual cluster nodes sending packets to the same node, with various encryption algorithms. \relax }}{33}}
\newlabel{fig:StressTest}{{4.7}{33}}
\@writefile{toc}{\contentsline {chapter}{\numberline {5}Conclusions and future work}{35}}
\@writefile{lof}{\addvspace {10\p@ }}
\@writefile{lot}{\addvspace {10\p@ }}
\newlabel{chap:conclusion}{{5}{35}}
\citation{*}
\bibstyle{plain}
\bibdata{bibliography}
\bibcite{OpenNebulaVirtualNetworks}{{1}{}{{}}{{}}}
\bibcite{DynamicVirtualClustering}{{2}{}{{}}{{}}}
\bibcite{ISAKMP}{{3}{}{{}}{{}}}
\bibcite{IKE}{{4}{}{{}}{{}}}
\bibcite{ISAKMP1}{{5}{}{{}}{{}}}
\bibcite{AH}{{6}{}{{}}{{}}}
\bibcite{ESP1}{{7}{}{{}}{{}}}
\bibcite{ESP}{{8}{}{{}}{{}}}
\bibcite{IPsec}{{9}{}{{}}{{}}}
\bibcite{LZO}{{10}{}{{}}{{}}}
\bibcite{OpenNebulaManagingVirtualNetworks}{{11}{}{{}}{{}}}
\bibcite{OpenSSL}{{12}{}{{}}{{}}}
\bibcite{OpenVPN}{{13}{}{{}}{{}}}
\bibcite{Racoon}{{14}{}{{}}{{}}}
\bibcite{SecArchInternetProtocol}{{15}{}{{}}{{}}}
\bibcite{Libvirt}{{16}{}{{}}{{}}}
\bibcite{SotomayorMontero2009}{{17}{}{{}}{{}}}
\bibcite{BavierFeamster2006}{{18}{}{{}}{{}}}
\bibcite{BhatiaMotiwala2008}{{19}{}{{}}{{}}}
\bibcite{EmenekerStanzione2006}{{20}{}{{}}{{}}}
\bibcite{EmenekerStanzione2007}{{21}{}{{}}{{}}}
\bibcite{Sotomayor2008}{{22}{}{{}}{{}}}
\bibcite{Fabfile}{{23}{}{{}}{{}}}
\bibcite{KeaheyFreeman2008}{{24}{}{{}}{{}}}
\bibcite{OpenNebula}{{25}{}{{}}{{}}}
\bibcite{RekhterMoskowitz1996}{{26}{}{{}}{{}}}
\bibcite{AmazonCaseStudies}{{27}{}{{}}{{}}}
\bibcite{FreemanKeahey2008}{{28}{}{{}}{{}}}
\bibcite{FreemanKeahey2006}{{29}{}{{}}{{}}}
\bibcite{Tanenbaum1988}{{30}{}{{}}{{}}}
\bibcite{TsugawaFortes2006}{{31}{}{{}}{{}}}
\bibcite{AmazonVPCFAQ}{{32}{}{{}}{{}}}
\bibcite{AmazonVPC}{{33}{}{{}}{{}}}
\@writefile{toc}{\contentsline {chapter}{\numberline {A}OpenVPN and IPsec configuration details}{41}}
\@writefile{lof}{\addvspace {10\p@ }}
\@writefile{lot}{\addvspace {10\p@ }}
\newlabel{apdx:configurationdetails}{{A}{41}}
\@writefile{toc}{\contentsline {section}{\numberline {A.1}OpenVPN}{41}}
\@writefile{toc}{\contentsline {subsection}{\numberline {A.1.1}The server}{41}}
\@writefile{toc}{\contentsline {subsection}{\numberline {A.1.2}The client}{42}}
\@writefile{toc}{\contentsline {section}{\numberline {A.2}IPsec}{44}}
\@writefile{toc}{\contentsline {subsection}{\numberline {A.2.1}Environment}{44}}
\@writefile{toc}{\contentsline {subsection}{\numberline {A.2.2}First configuration steps}{44}}
\@writefile{toc}{\contentsline {subsection}{\numberline {A.2.3}Configuring the environment for IPSec}{46}}
\@writefile{toc}{\contentsline {section}{\numberline {A.3}Python Fabric tool usage}{49}}
\@writefile{toc}{\contentsline {chapter}{\numberline {B}Python tool usage}{51}}
\@writefile{lof}{\addvspace {10\p@ }}
\@writefile{lot}{\addvspace {10\p@ }}
\newlabel{apdx:toolusage}{{B}{51}}
\@writefile{toc}{\contentsline {section}{\numberline {B.1}Creation}{51}}
\@writefile{toc}{\contentsline {section}{\numberline {B.2}Merging}{52}}
\@writefile{toc}{\contentsline {section}{\numberline {B.3}Deletion}{52}}
\@writefile{toc}{\contentsline {chapter}{\numberline {C}Resource management}{53}}
\@writefile{lof}{\addvspace {10\p@ }}
\@writefile{lot}{\addvspace {10\p@ }}
\newlabel{apdx:resourcemanagement}{{C}{53}}
\@writefile{toc}{\contentsline {section}{\numberline {C.1}Adding a new site}{53}}
\@writefile{toc}{\contentsline {section}{\numberline {C.2}Removing a site}{53}}
\@writefile{toc}{\contentsline {section}{\numberline {C.3}Adding a new cluster node to a site}{53}}
\citation{OpenNebulaVirtualNetworks}
\providecommand\NAT@force@numbers{}\NAT@force@numbers
\@writefile{toc}{\contentsline {section}{\numberline {C.4}Removing a cluster node from a site}{55}}
