This is BibTeX, Version 0.99c (TeX Live 2009/Debian)
The top-level auxiliary file: Thesis.aux
The style file: plain.bst
Database file #1: bibliography.bib
Warning--to sort, need author or key in IPsec
Warning--to sort, need author or key in Libvirt
Warning--to sort, need author or key in OpenVPN
Warning--to sort, need author or key in OpenSSL
Warning--to sort, need author or key in LZO
Warning--to sort, need author or key in AH
Warning--to sort, need author or key in ESP1
Warning--to sort, need author or key in Racoon
Warning--to sort, need author or key in DynamicVirtualClustering
Warning--to sort, need author or key in ESP
Warning--to sort, need author or key in SecArchInternetProtocol
Warning--to sort, need author or key in IKE
Warning--to sort, need author or key in ISAKMP
Warning--to sort, need author or key in ISAKMP1
Warning--to sort, need author or key in OpenNebulaVirtualNetworks
Warning--to sort, need author or key in OpenNebulaManagingVirtualNetworks
You've used 33 entries,
            2118 wiz_defined-function locations,
            647 strings with 7997 characters,
and the built_in function-call counts, 7550 in all, are:
= -- 698
> -- 305
< -- 1
+ -- 135
- -- 98
* -- 364
:= -- 1135
add.period$ -- 80
call.type$ -- 33
change.case$ -- 143
chr.to.int$ -- 0
cite$ -- 49
duplicate$ -- 313
empty$ -- 756
format.name$ -- 98
if$ -- 1688
int.to.chr$ -- 0
int.to.str$ -- 33
missing$ -- 13
newline$ -- 147
num.names$ -- 34
pop$ -- 272
preamble$ -- 1
purify$ -- 115
quote$ -- 0
skip$ -- 280
stack$ -- 0
substring$ -- 206
swap$ -- 58
text.length$ -- 1
text.prefix$ -- 0
top$ -- 0
type$ -- 130
warning$ -- 16
while$ -- 36
width$ -- 35
write$ -- 277
(There were 16 warnings)
