\relax 
\@writefile{toc}{\contentsline {chapter}{\numberline {4}Virtual Cluster configuration}{19}}
\@writefile{lof}{\addvspace {10\p@ }}
\@writefile{lot}{\addvspace {10\p@ }}
\newlabel{chap:virtualclusterconfiguration}{{4}{19}}
\@writefile{toc}{\contentsline {section}{\numberline {4.1}Master node}{20}}
\@writefile{lof}{\contentsline {figure}{\numberline {4.1}{\ignorespaces Master node's role.\relax }}{20}}
\newlabel{fig:masternode}{{4.1}{20}}
\@writefile{toc}{\contentsline {section}{\numberline {4.2}Python Fabric tool}{20}}
\@writefile{toc}{\contentsline {section}{\numberline {4.3}Creation}{21}}
\@writefile{lof}{\contentsline {figure}{\numberline {4.2}{\ignorespaces Resources for virtual clusters.\relax }}{21}}
\newlabel{fig:creation1}{{4.2}{21}}
\@writefile{lof}{\contentsline {figure}{\numberline {4.3}{\ignorespaces IP address assignments and packet routing.\relax }}{22}}
\newlabel{fig:creation2}{{4.3}{22}}
\@writefile{lof}{\contentsline {figure}{\numberline {4.4}{\ignorespaces Virtual cluster creation process on one machine.\relax }}{23}}
\newlabel{fig:creation3}{{4.4}{23}}
\@writefile{lof}{\contentsline {figure}{\numberline {4.5}{\ignorespaces Three virtual machines virtual cluster.\relax }}{23}}
\newlabel{fig:creation4}{{4.5}{23}}
\@writefile{toc}{\contentsline {section}{\numberline {4.4}Merging}{23}}
\@writefile{toc}{\contentsline {subsection}{\numberline {4.4.1}Local merge}{24}}
\@writefile{lof}{\contentsline {figure}{\numberline {4.6}{\ignorespaces Local merge.\relax }}{24}}
\newlabel{fig:localmerge}{{4.6}{24}}
\@writefile{toc}{\contentsline {subsection}{\numberline {4.4.2}Remote merge}{25}}
\@writefile{lof}{\contentsline {figure}{\numberline {4.7}{\ignorespaces Remote merge.\relax }}{26}}
\newlabel{fig:remotemerge}{{4.7}{26}}
\@writefile{toc}{\contentsline {subsection}{\numberline {4.4.3}Deletion}{26}}
\@setckpt{virtualclusterconfiguration}{
\setcounter{page}{27}
\setcounter{equation}{0}
\setcounter{enumi}{2}
\setcounter{enumii}{0}
\setcounter{enumiii}{0}
\setcounter{enumiv}{0}
\setcounter{footnote}{0}
\setcounter{mpfootnote}{0}
\setcounter{part}{0}
\setcounter{chapter}{4}
\setcounter{section}{4}
\setcounter{subsection}{3}
\setcounter{subsubsection}{0}
\setcounter{paragraph}{0}
\setcounter{subparagraph}{0}
\setcounter{figure}{7}
\setcounter{table}{0}
\setcounter{NAT@ctr}{0}
\setcounter{ContinuedFloat}{0}
}
