\relax 
\@writefile{toc}{\contentsline {chapter}{\numberline {3}Virtual Cluster Networks}{13}}
\@writefile{lof}{\addvspace {10\p@ }}
\@writefile{lot}{\addvspace {10\p@ }}
\newlabel{chap:virtualclusternetworks}{{3}{13}}
\@writefile{toc}{\contentsline {section}{\numberline {3.1}Communication}{14}}
\@writefile{lof}{\contentsline {figure}{\numberline {3.1}{\ignorespaces Communication between two virtual machine endpoints.\relax }}{14}}
\providecommand*\caption@xref[2]{\@setref\relax\@undefined{#1}}
\newlabel{fig:Communication}{{3.1}{14}}
\@writefile{toc}{\contentsline {section}{\numberline {3.2}Security layer}{15}}
\@writefile{lof}{\contentsline {figure}{\numberline {3.2}{\ignorespaces Security layer with regards to two communicating endpoints.\relax }}{16}}
\newlabel{fig:SecurityLayer}{{3.2}{16}}
\@writefile{toc}{\contentsline {subsection}{\numberline {3.2.1}OpenVPN}{16}}
\@writefile{toc}{\contentsline {subsection}{\numberline {3.2.2}IPsec}{17}}
\@writefile{toc}{\contentsline {subsubsection}{\numberline {3.2.2.1}Internet Key Exchange protocol}{17}}
\@setckpt{virtualclusternetworks}{
\setcounter{page}{19}
\setcounter{equation}{0}
\setcounter{enumi}{0}
\setcounter{enumii}{0}
\setcounter{enumiii}{0}
\setcounter{enumiv}{0}
\setcounter{footnote}{0}
\setcounter{mpfootnote}{0}
\setcounter{part}{0}
\setcounter{chapter}{3}
\setcounter{section}{2}
\setcounter{subsection}{2}
\setcounter{subsubsection}{1}
\setcounter{paragraph}{0}
\setcounter{subparagraph}{0}
\setcounter{figure}{2}
\setcounter{table}{0}
\setcounter{NAT@ctr}{0}
\setcounter{ContinuedFloat}{0}
}
