package org.slasoi.gslam.pac;
import org.ow2.contrail.provider.pac.events.ViolationMessage;
import org.ow2.contrail.provider.pac.events.ViolationMessageTranslator;
import org.ow2.contrail.provider.pac.events.EventViolationFederationForwardingHandler;
import org.ow2.contrail.provider.pac.events.EventWarningCustomActionHandler;

//Rules to manage different monitoring event type: warning and violation;
rule "PrintEventWarning"
@id(1)
@name("PrintEventWarning")
@rulebody(rule "PrintEventWarning" 
    when
    	$event : Event(type == EventType.WarningEvent); 
		$message : ViolationMessage();
		$translator: ViolationMessageTranslator();
    then
		System.out.println("INSIDE DROOLS RULE:");
    	System.out.println("An event of type EventType.WarningEvent has been inserted:");
        EventWarningCustomActionHandler eventype= new EventWarningCustomActionHandler();
		eventype.setMessage($message);
		eventype.process();
end)
    when
    	$event : Event(type == EventType.WarningEvent); 
		$message : ViolationMessage();
		$translator: ViolationMessageTranslator();
    then
		System.out.println("INSIDE DROOLS RULE:");
    	System.out.println("An event of type EventType.WarningEvent has been inserted:");
        EventWarningCustomActionHandler eventype= new EventWarningCustomActionHandler();
		eventype.setMessage($message);
		eventype.process();
end

rule "PrintEventViolation"
@id(2)
@name("PrintEventViolation")
@rulebody(rule "PrintEventViolation" 
    when
    	$event : Event(type == EventType.ViolationEvent);
		$message : ViolationMessage();
		$translator: ViolationMessageTranslator();
    then
		System.out.println("INSIDE DROOLS RULE:");
    	System.out.println("An event of type EventType.ViolationEvent has been inserted:");
		EventViolationFederationForwardingHandler eventype= new EventViolationFederationForwardingHandler();
		eventype.setMessage($message);
		eventype.process();
end)
   when
    	$event : Event(type == EventType.ViolationEvent); 
		$message : ViolationMessage();
		$translator: ViolationMessageTranslator();
    then
		
		System.out.println("INSIDE DROOLS RULE:");
    	System.out.println("An event of type EventType.ViolationEvent has been inserted:");
		EventViolationFederationForwardingHandler eventype= new EventViolationFederationForwardingHandler();
		eventype.setMessage($message);
		eventype.process();
end