package org.slasoi.gslam.pac;

//Rules to send events to the agents: selects an agent with a task = task 
rule "PrintEvent"
@id(1)
@name("PrintEvent")
@rulebody(rule "PrintEvent" 
    when
    	$event : Event(); 
    then
    	System.out.println("An event has been inserted:");
        System.out.println($event.toString());
end) 
    when
    	$event : Event(); 
    then
    	System.out.println("An event has been inserted:");
        System.out.println($event.toString());
end


rule "PrintAgent"
@id(2)
@name("PrintAgent")
@rulebody(rule "PrintAgent" 
    when
    	$agent : Agent();
    then
    	System.out.println("An agent has been inserted:");
        System.out.println($agent.toString());
end) 
    when
    	$agent : Agent();
    then
    	System.out.println("An agent has been inserted:");
        System.out.println($agent.toString());
end


rule "Pick_up_Event"
@id(3)
@name("Pick_up_Event")
@rulebody(rule "Pick_up_Event" 
	salience 5
    when
    	$event : Event(status == EventStatus.CREATED);
    	$agent : Agent();
    	eval($agent.canProcessEvent($event))
    then
    	System.out.println("event and agent");
    	modify($event){setStatus(EventStatus.PICKED_UP)};
        $agent.notifyEvent($event);
        retract($event);
end) 
	salience 5
    when
    	$event : Event(status == EventStatus.CREATED);
    	$agent : Agent();
    	eval($agent.canProcessEvent($event))
    then
    	System.out.println("event and agent");
    	modify($event){setStatus(EventStatus.PICKED_UP)};
        $agent.notifyEvent($event);
        retract($event);
end

rule "Event_for_PAC"
@id(4)
@name("Event_for_PAC")
@rulebody(rule "Event_for_PAC" 
    when
    	$event : Event(type == EventType.PlanExecutionResponse);
		$pac: ProvisioningAndAdjustment();
    then
        $pac.notifyEvent($event);
        retract($event);
end) 
    when
    	$event : Event(type == EventType.PlanExecutionResponse);
		$pac: ProvisioningAndAdjustment();
    then
        $pac.notifyEvent($event);
        retract($event);
end

rule "Pick_up_Stop_Event"
@id(5)
@name("Pick_up_Stop_Event")
@rulebody(rule "Pick_up_Stop_Event" 
	salience 5
    when
    	$event : Event(status == EventStatus.CREATED, type == EventType.StopAgentsEvent);
    	$agent : Agent();
    then
    	System.out.println("stopping agent");
      $agent.stop();
      retract($event);
end) 
	salience 5
    when
    	$event : Event(status == EventStatus.CREATED, type == EventType.StopAgentsEvent);
    	$agent : Agent();
    then
    	System.out.println("stopping agent");
      $agent.stop();
      retract($event);
end
