Date,Time,NETRxKBTot
20100703,08:26:20,6
20100703,08:26:30,74
20100703,08:26:40,7
20100703,08:26:50,6
20100703,08:27:00,4
20100703,08:27:10,26
20100703,08:27:20,30
20100703,08:27:30,3
20100703,08:27:40,0
20100703,08:27:50,29
20100703,08:28:00,0
20100703,08:28:10,0
