Date,Time,NETTxKBTot
20100703,08:26:20,3
20100703,08:26:30,10
20100703,08:26:40,3
20100703,08:26:50,2
20100703,08:27:00,1
20100703,08:27:10,3
20100703,08:27:20,8
20100703,08:27:30,1
20100703,08:27:40,0
20100703,08:27:50,6
20100703,08:28:00,0
20100703,08:28:10,1
