Date,Time,DSKWriteKBTot
20100703,08:26:20,51
20100703,08:26:30,200
20100703,08:26:40,140
20100703,08:26:50,20
20100703,08:27:00,15
20100703,08:27:10,189
20100703,08:27:20,100
20100703,08:27:30,65
20100703,08:27:40,7
20100703,08:27:50,66
20100703,08:28:00,13
20100703,08:28:10,10530
