Date,Time,CPULAvg1
20100413,07:02:50,0.04
20100413,07:03:00,0.04
20100413,07:03:10,0.18
20100413,07:03:20,0.15
20100413,07:03:30,0.13
20100413,07:03:40,0.18
20100413,07:03:50,0.15
20100413,07:04:00,0.13
20100413,07:04:10,0.11
20100413,07:04:20,0.09
20100413,07:04:30,0.32
20100413,07:04:40,0.56
20100413,07:04:50,1.18
20100413,07:05:00,1.23
20100413,07:05:10,1.97
20100413,07:05:20,4.12
20100413,07:05:30,3.93
20100413,07:05:40,3.78
20100413,07:05:50,4.02
20100413,07:06:00,3.55
20100413,07:06:10,3.40
20100413,07:06:20,3.03
20100413,07:06:30,3.56
20100413,07:06:40,3.31
20100413,07:06:50,3.04
20100413,07:07:00,2.57
20100413,07:07:10,2.17
20100413,07:07:20,1.91
20100413,07:07:30,1.62
20100413,07:07:40,1.37
20100413,07:07:50,1.16
20100413,07:08:00,0.98
20100413,07:08:10,0.83
20100413,07:08:20,0.70
20100413,07:08:30,0.67
20100413,07:08:40,0.57
20100413,07:08:50,0.48
20100413,07:09:00,0.41
20100413,07:09:10,0.95
20100413,07:09:20,1.18
20100413,07:09:30,1.45
20100413,07:09:40,1.46
20100413,07:09:50,1.31
20100413,07:10:00,1.10
20100413,07:10:10,1.47
20100413,07:10:20,1.77
20100413,07:10:30,2.02
20100413,07:10:40,1.86
20100413,07:10:50,1.73
20100413,07:11:00,1.61
20100413,07:11:10,1.52
20100413,07:11:20,1.28
20100413,07:11:30,1.09
20100413,07:11:40,0.92
20100413,07:11:50,0.78
20100413,07:12:00,0.66
20100413,07:12:10,0.63
20100413,07:12:20,0.53
20100413,07:12:30,0.45
20100413,07:12:40,0.38
20100413,07:12:50,0.32
20100413,07:13:00,0.27
20100413,07:13:10,0.23
20100413,07:13:20,0.19
20100413,07:13:30,0.16
20100413,07:13:40,0.14
20100413,07:13:50,0.12
20100413,07:14:00,0.10
20100413,07:14:10,0.08
20100413,07:14:20,0.14
20100413,07:14:30,0.12
20100413,07:14:40,0.10
20100413,07:14:50,0.09
20100413,07:15:00,0.07
20100413,07:15:10,0.06
20100413,07:15:20,0.05
20100413,07:15:30,0.04
20100413,07:15:40,0.04
20100413,07:15:50,0.03
20100413,07:16:00,0.02
20100413,07:16:10,0.02
20100413,07:16:20,0.02
20100413,07:16:30,0.09
20100413,07:16:40,0.07
20100413,07:16:50,0.06
20100413,07:17:00,0.05
20100413,07:17:10,0.04
20100413,07:17:20,0.04
20100413,07:17:30,0.03
20100413,07:17:40,0.02
20100413,07:17:50,0.02
20100413,07:18:00,0.02
20100413,07:18:10,0.01
20100413,07:18:20,0.01
20100413,07:18:30,0.01
20100413,07:18:40,0.01
20100413,07:18:50,0.01
20100413,07:19:00,0.00
20100413,07:19:10,0.00
20100413,07:19:20,0.00
20100413,07:19:30,0.00
20100413,07:19:40,0.00
20100413,07:19:50,0.08
20100413,07:20:00,0.07
20100413,07:20:10,0.06
20100413,07:20:20,0.05
20100413,07:20:30,0.04
20100413,07:20:40,0.03
20100413,07:20:50,0.10
20100413,07:21:00,0.08
20100413,07:21:10,0.07
20100413,07:21:20,0.06
20100413,07:21:30,0.05
20100413,07:21:40,0.04
20100413,07:21:50,0.04
20100413,07:22:00,0.03
20100413,07:22:10,0.02
20100413,07:22:20,0.02
20100413,07:22:30,0.02
20100413,07:22:40,0.01
20100413,07:22:50,0.01
20100413,07:23:00,0.08
20100413,07:23:10,0.07
20100413,07:23:20,0.06
20100413,07:23:30,0.05
20100413,07:23:40,0.04
20100413,07:23:50,0.03
20100413,07:24:00,0.03
20100413,07:24:10,0.02
20100413,07:24:20,0.02
20100413,07:24:30,0.02
20100413,07:24:40,0.01
20100413,07:24:50,0.01
20100413,07:25:00,0.01
20100413,07:25:10,0.01
20100413,07:25:20,0.00
20100413,07:25:30,0.00
20100413,07:25:40,0.00
20100413,07:25:50,0.00
20100413,07:26:00,0.00
20100413,07:26:10,0.00
20100413,07:26:20,0.00
20100413,07:26:30,0.00
20100413,07:26:40,0.00
20100413,07:26:50,0.00
20100413,07:27:00,0.00
20100413,07:27:10,0.08
20100413,07:27:20,0.07
20100413,07:27:30,0.06
20100413,07:27:40,0.05
20100413,07:27:50,0.04
20100413,07:28:00,0.03
20100413,07:28:10,0.10
20100413,07:28:20,0.08
20100413,07:28:30,0.07
20100413,07:28:40,0.06
20100413,07:28:50,0.05
20100413,07:29:00,0.12
20100413,07:29:10,0.10
20100413,07:29:20,0.09
20100413,07:29:30,0.07
20100413,07:29:40,0.06
20100413,07:29:50,0.05
20100413,07:30:00,0.04
20100413,07:30:10,0.04
20100413,07:30:20,0.03
20100413,07:30:30,0.02
20100413,07:30:40,0.02
20100413,07:30:50,0.02
20100413,07:31:00,0.01
20100413,07:31:10,0.01
20100413,07:31:20,0.01
20100413,07:31:30,0.01
20100413,07:31:40,0.01
20100413,07:31:50,0.00
20100413,07:32:00,0.00
20100413,07:32:10,0.08
20100413,07:32:20,0.06
20100413,07:32:30,0.05
20100413,07:32:40,0.04
20100413,07:32:50,0.04
20100413,07:33:00,0.03
20100413,07:33:10,0.26
20100413,07:33:20,0.90
20100413,07:33:30,1.68
20100413,07:33:40,1.94
20100413,07:33:50,1.72
20100413,07:34:00,1.45
20100413,07:34:10,1.54
20100413,07:34:20,1.53
20100413,07:34:30,2.21
20100413,07:34:40,2.32
20100413,07:34:50,2.12
20100413,07:35:00,1.79
20100413,07:35:10,1.51
20100413,07:35:20,1.28
20100413,07:35:30,1.08
20100413,07:35:40,0.92
20100413,07:35:50,0.77
20100413,07:36:00,0.66
20100413,07:36:10,1.24
20100413,07:36:20,1.83
20100413,07:36:30,1.99
20100413,07:36:40,1.84
20100413,07:36:50,1.56
20100413,07:37:00,1.32
20100413,07:37:10,1.81
20100413,07:37:20,2.14
20100413,07:37:30,2.11
20100413,07:37:40,1.94
20100413,07:37:50,1.79
20100413,07:38:00,1.75
20100413,07:38:10,1.70
20100413,07:38:20,1.44
20100413,07:38:30,1.21
20100413,07:38:40,1.03
20100413,07:38:50,0.87
20100413,07:39:00,0.73
20100413,07:39:10,0.62
20100413,07:39:20,0.53
20100413,07:39:30,0.44
20100413,07:39:40,0.38
20100413,07:39:50,0.39
20100413,07:40:00,0.33
20100413,07:40:10,0.28
20100413,07:40:20,0.24
20100413,07:40:30,0.20
20100413,07:40:40,0.25
20100413,07:40:50,0.21
20100413,07:41:00,0.18
20100413,07:41:10,0.23
20100413,07:41:20,0.19
20100413,07:41:30,0.16
20100413,07:41:40,0.29
20100413,07:41:50,0.25
20100413,07:42:00,0.21
20100413,07:42:10,0.26
20100413,07:42:20,0.22
20100413,07:42:30,0.26
20100413,07:42:40,0.30
20100413,07:42:50,0.25
20100413,07:43:00,0.21
20100413,07:43:10,0.26
20100413,07:43:20,0.22
20100413,07:43:30,0.19
20100413,07:43:40,0.24
20100413,07:43:50,0.27
20100413,07:44:00,0.23
20100413,07:44:10,0.28
20100413,07:44:20,0.23
20100413,07:44:30,0.20
20100413,07:44:40,0.33
20100413,07:44:50,0.27
20100413,07:45:00,0.23
20100413,07:45:10,0.28
20100413,07:45:20,0.23
20100413,07:45:30,0.20
20100413,07:45:40,0.25
20100413,07:45:50,0.21
20100413,07:46:00,0.17
20100413,07:46:10,0.31
20100413,07:46:20,0.26
20100413,07:46:30,0.22
20100413,07:46:40,0.27
20100413,07:46:50,0.22
20100413,07:47:00,0.19
20100413,07:47:10,0.24
20100413,07:47:20,0.20
20100413,07:47:30,0.24
20100413,07:47:40,0.29
20100413,07:47:50,0.24
20100413,07:48:00,0.20
20100413,07:48:10,0.25
20100413,07:48:20,0.21
20100413,07:48:30,0.18
20100413,07:48:40,0.39
20100413,07:48:50,0.48
20100413,07:49:00,0.86
20100413,07:49:10,1.19
20100413,07:49:20,1.16
20100413,07:49:30,1.13
20100413,07:49:40,1.27
20100413,07:49:50,1.22
20100413,07:50:00,1.19
20100413,07:50:10,1.31
20100413,07:50:20,1.27
20100413,07:50:30,1.22
20100413,07:50:40,1.19
20100413,07:50:50,1.23
20100413,07:51:00,1.20
20100413,07:51:10,1.17
20100413,07:51:20,1.14
20100413,07:51:30,1.12
20100413,07:51:40,1.02
20100413,07:51:50,0.86
20100413,07:52:00,0.73
20100413,07:52:10,0.62
20100413,07:52:20,0.52
20100413,07:52:30,0.44
20100413,07:52:40,0.37
20100413,07:52:50,0.31
20100413,07:53:00,0.27
20100413,07:53:10,0.22
20100413,07:53:20,0.19
20100413,07:53:30,0.16
20100413,07:53:40,0.13
20100413,07:53:50,0.11
20100413,07:54:00,0.10
20100413,07:54:10,0.16
20100413,07:54:20,0.13
20100413,07:54:30,0.11
20100413,07:54:40,0.10
20100413,07:54:50,0.08
20100413,07:55:00,0.07
20100413,07:55:10,0.21
20100413,07:55:20,0.33
20100413,07:55:30,0.43
20100413,07:55:40,0.60
20100413,07:55:50,0.51
20100413,07:56:00,0.51
20100413,07:56:10,0.43
20100413,07:56:20,0.36
20100413,07:56:30,0.31
20100413,07:56:40,0.26
20100413,07:56:50,0.22
20100413,07:57:00,0.18
20100413,07:57:10,0.16
20100413,07:57:20,0.13
20100413,07:57:30,0.11
20100413,07:57:40,0.09
20100413,07:57:50,0.08
20100413,07:58:00,0.07
20100413,07:58:10,0.14
20100413,07:58:20,0.11
20100413,07:58:30,0.10
20100413,07:58:40,0.08
20100413,07:58:50,0.07
20100413,07:59:00,0.06
20100413,07:59:10,0.05
20100413,07:59:20,0.04
20100413,07:59:30,0.11
20100413,07:59:40,0.09
20100413,07:59:50,0.08
20100413,08:00:00,0.06
20100413,08:00:10,0.05
20100413,08:00:20,0.04
20100413,08:00:30,0.04
20100413,08:00:40,0.11
20100413,08:00:50,0.09
20100413,08:01:00,0.08
20100413,08:01:10,0.07
20100413,08:01:20,0.14
20100413,08:01:30,0.19
20100413,08:01:40,0.31
20100413,08:01:50,0.33
20100413,08:02:00,0.28
20100413,08:02:10,0.24
20100413,08:02:20,0.20
20100413,08:02:30,0.24
20100413,08:02:40,0.28
