#Date, Time, memFree, memUsed
20100413, 07:02:50, 1092.62, 911.25
20100413, 07:03:00, 1092.63, 911.242
20100413, 07:03:10, 1092.88, 910.996
20100413, 07:03:20, 1092.76, 911.109
20100413, 07:03:30, 1092.77, 911.105
20100413, 07:03:40, 1092.65, 911.223
20100413, 07:03:50, 1092.78, 911.094
20100413, 07:04:00, 1092.78, 911.094
20100413, 07:04:10, 1093.2, 910.668
20100413, 07:04:20, 1300.33, 703.539
20100413, 07:04:30, 1260.67, 743.203
20100413, 07:04:40, 1198.27, 805.602
20100413, 07:04:50, 1234.53, 769.34
20100413, 07:05:00, 1184.59, 819.281
20100413, 07:05:10, 1150.66, 853.215
20100413, 07:05:20, 1254.51, 749.363
20100413, 07:05:30, 1194.2, 809.676
20100413, 07:05:40, 1175.83, 828.039
20100413, 07:05:50, 1093.8, 910.074
20100413, 07:06:00, 1300.37, 703.504
20100413, 07:06:10, 1258.55, 745.32
20100413, 07:06:20, 1190.09, 813.785
20100413, 07:06:30, 1175.21, 828.656
20100413, 07:06:40, 1094.38, 909.496
20100413, 07:06:50, 1112.29, 891.578
20100413, 07:07:00, 1300.47, 703.398
20100413, 07:07:10, 1300.84, 703.027
20100413, 07:07:20, 1300.85, 703.023
20100413, 07:07:30, 1300.74, 703.133
20100413, 07:07:40, 1300.8, 703.07
20100413, 07:07:50, 1300.33, 703.539
20100413, 07:08:00, 1300.45, 703.418
20100413, 07:08:10, 1300.46, 703.41
20100413, 07:08:20, 1300.59, 703.285
20100413, 07:08:30, 1300.47, 703.402
20100413, 07:08:40, 1300.48, 703.395
20100413, 07:08:50, 1300.36, 703.508
20100413, 07:09:00, 1300.37, 703.504
20100413, 07:09:10, 1250.8, 753.074
20100413, 07:09:20, 1190.29, 813.582
20100413, 07:09:30, 1095.65, 908.219
20100413, 07:09:40, 1114.67, 889.199
20100413, 07:09:50, 1300.21, 703.66
20100413, 07:10:00, 1300.34, 703.535
20100413, 07:10:10, 1248.54, 755.336
20100413, 07:10:20, 1188.2, 815.676
20100413, 07:10:30, 1085.57, 918.301
20100413, 07:10:40, 1100.72, 903.152
20100413, 07:10:50, 1130.88, 872.992
20100413, 07:11:00, 1140.46, 863.41
20100413, 07:11:10, 1288.35, 715.52
20100413, 07:11:20, 1288.47, 715.398
20100413, 07:11:30, 1288.43, 715.445
20100413, 07:11:40, 1288.43, 715.438
20100413, 07:11:50, 1288.56, 715.309
20100413, 07:12:00, 1288.57, 715.297
20100413, 07:12:10, 1288.45, 715.426
20100413, 07:12:20, 1288.45, 715.418
20100413, 07:12:30, 1288.58, 715.293
20100413, 07:12:40, 1288.59, 715.281
20100413, 07:12:50, 1288.47, 715.398
20100413, 07:13:00, 1288.48, 715.395
20100413, 07:13:10, 1288.61, 715.266
20100413, 07:13:20, 1288.38, 715.492
20100413, 07:13:30, 1288.43, 715.438
20100413, 07:13:40, 1288.43, 715.438
20100413, 07:13:50, 1288.44, 715.43
20100413, 07:14:00, 1288.45, 715.426
20100413, 07:14:10, 1288.57, 715.297
20100413, 07:14:20, 1288.7, 715.176
20100413, 07:14:30, 1288.7, 715.172
20100413, 07:14:40, 1288.7, 715.172
20100413, 07:14:50, 1288.35, 715.523
20100413, 07:15:00, 1288.35, 715.52
20100413, 07:15:10, 1288.96, 714.914
20100413, 07:15:20, 1288.85, 715.02
20100413, 07:15:30, 1288.91, 714.965
20100413, 07:15:40, 1288.79, 715.078
20100413, 07:15:50, 1288.31, 715.559
20100413, 07:16:00, 1288.2, 715.676
20100413, 07:16:10, 1288.68, 715.191
20100413, 07:16:20, 1288.32, 715.555
20100413, 07:16:30, 1288.32, 715.547
20100413, 07:16:40, 1288.34, 715.535
20100413, 07:16:50, 1288.34, 715.535
20100413, 07:17:00, 1288.34, 715.535
20100413, 07:17:10, 1288.34, 715.535
20100413, 07:17:20, 1288.35, 715.52
20100413, 07:17:30, 1288.41, 715.465
20100413, 07:17:40, 1288.42, 715.453
20100413, 07:17:50, 1288.55, 715.324
20100413, 07:18:00, 1288.55, 715.32
20100413, 07:18:10, 1288.32, 715.555
20100413, 07:18:20, 1288.33, 715.543
20100413, 07:18:30, 1288.33, 715.539
20100413, 07:18:40, 1288.34, 715.531
20100413, 07:18:50, 1288.46, 715.406
20100413, 07:19:00, 1288.47, 715.402
20100413, 07:19:10, 1288.35, 715.523
20100413, 07:19:20, 1288.24, 715.629
20100413, 07:19:30, 1288.42, 715.453
20100413, 07:19:40, 1288.43, 715.445
20100413, 07:19:50, 1288.43, 715.441
20100413, 07:20:00, 1288.43, 715.441
20100413, 07:20:10, 1288.8, 715.074
20100413, 07:20:20, 1288.81, 715.062
20100413, 07:20:30, 1288.81, 715.059
20100413, 07:20:40, 1288.83, 715.043
20100413, 07:20:50, 1288.83, 715.043
20100413, 07:21:00, 1288.71, 715.16
20100413, 07:21:10, 1288.59, 715.277
20100413, 07:21:20, 1288.72, 715.148
20100413, 07:21:30, 1288.74, 715.133
20100413, 07:21:40, 1288.8, 715.07
20100413, 07:21:50, 1288.81, 715.062
20100413, 07:22:00, 1288.81, 715.059
20100413, 07:22:10, 1288.82, 715.047
20100413, 07:22:20, 1288.34, 715.527
20100413, 07:22:30, 1288.35, 715.52
20100413, 07:22:40, 1288.25, 715.625
20100413, 07:22:50, 1288.38, 715.488
20100413, 07:23:00, 1288.38, 715.488
20100413, 07:23:10, 1288.27, 715.598
20100413, 07:23:20, 1288.29, 715.582
20100413, 07:23:30, 1288.3, 715.574
20100413, 07:23:40, 1288.36, 715.508
20100413, 07:23:50, 1288.38, 715.496
20100413, 07:24:00, 1288.38, 715.492
20100413, 07:24:10, 1288.75, 715.121
20100413, 07:24:20, 1288.76, 715.109
20100413, 07:24:30, 1288.64, 715.227
20100413, 07:24:40, 1288.54, 715.336
20100413, 07:24:50, 1288.67, 715.199
20100413, 07:25:00, 1288.68, 715.195
20100413, 07:25:10, 1288.2, 715.676
20100413, 07:25:20, 1288.07, 715.797
20100413, 07:25:30, 1288.2, 715.672
20100413, 07:25:40, 1288.25, 715.617
20100413, 07:25:50, 1288.15, 715.719
20100413, 07:26:00, 1288.28, 715.59
20100413, 07:26:10, 1288.29, 715.586
20100413, 07:26:20, 1288.29, 715.582
20100413, 07:26:30, 1288.44, 715.43
20100413, 07:26:40, 1288.57, 715.297
20100413, 07:26:50, 1288.58, 715.293
20100413, 07:27:00, 1288.58, 715.289
20100413, 07:27:10, 1288.59, 715.285
20100413, 07:27:20, 1288.35, 715.523
20100413, 07:27:30, 1288.23, 715.641
20100413, 07:27:40, 1288.41, 715.465
20100413, 07:27:50, 1288.29, 715.582
20100413, 07:28:00, 1288.17, 715.699
20100413, 07:28:10, 1288.35, 715.52
20100413, 07:28:20, 1288.35, 715.52
20100413, 07:28:30, 1288.23, 715.637
20100413, 07:28:40, 1288.37, 715.504
20100413, 07:28:50, 1288.37, 715.5
20100413, 07:29:00, 1288.26, 715.613
20100413, 07:29:10, 1288.87, 715
20100413, 07:29:20, 1288.39, 715.477
20100413, 07:29:30, 1288.28, 715.594
20100413, 07:29:40, 1288.33, 715.539
20100413, 07:29:50, 1288.34, 715.531
20100413, 07:30:00, 1288.36, 715.516
20100413, 07:30:10, 1287.94, 715.93
20100413, 07:30:20, 1287.95, 715.926
20100413, 07:30:30, 1287.95, 715.922
20100413, 07:30:40, 1287.96, 715.91
20100413, 07:30:50, 1287.97, 715.902
20100413, 07:31:00, 1287.97, 715.898
20100413, 07:31:10, 1288.11, 715.762
20100413, 07:31:20, 1287.99, 715.883
20100413, 07:31:30, 1287.99, 715.883
20100413, 07:31:40, 1288.16, 715.711
20100413, 07:31:50, 1288.17, 715.703
20100413, 07:32:00, 1288.05, 715.824
20100413, 07:32:10, 1288.3, 715.574
20100413, 07:32:20, 1287.81, 716.059
20100413, 07:32:30, 1287.82, 716.055
20100413, 07:32:40, 1287.82, 716.047
20100413, 07:32:50, 1287.95, 715.926
20100413, 07:33:00, 1287.83, 716.039
20100413, 07:33:10, 1240.84, 763.031
20100413, 07:33:20, 1178.31, 825.559
20100413, 07:33:30, 1159.54, 844.332
20100413, 07:33:40, 1079.85, 924.023
20100413, 07:33:50, 1287.85, 716.02
20100413, 07:34:00, 1287.98, 715.895
20100413, 07:34:10, 1244.83, 759.039
20100413, 07:34:20, 1178.79, 825.082
20100413, 07:34:30, 1163.42, 840.449
20100413, 07:34:40, 1082.71, 921.164
20100413, 07:34:50, 1079.19, 924.68
20100413, 07:35:00, 1287.82, 716.047
20100413, 07:35:10, 1287.8, 716.07
20100413, 07:35:20, 1287.68, 716.191
20100413, 07:35:30, 1287.73, 716.137
20100413, 07:35:40, 1287.74, 716.129
20100413, 07:35:50, 1287.75, 716.117
20100413, 07:36:00, 1287.63, 716.238
20100413, 07:36:10, 1241.46, 762.414
20100413, 07:36:20, 1174.76, 829.113
20100413, 07:36:30, 1087.95, 915.922
20100413, 07:36:40, 1084.2, 919.668
20100413, 07:36:50, 1287.3, 716.574
20100413, 07:37:00, 1287.3, 716.574
20100413, 07:37:10, 1238.4, 765.473
20100413, 07:37:20, 1175.39, 828.484
20100413, 07:37:30, 1084.39, 919.48
20100413, 07:37:40, 1090.34, 913.535
20100413, 07:37:50, 1123.77, 880.102
20100413, 07:38:00, 1136.73, 867.145
20100413, 07:38:10, 1287.27, 716.602
20100413, 07:38:20, 1287.27, 716.598
20100413, 07:38:30, 1287.27, 716.598
20100413, 07:38:40, 1287.39, 716.477
20100413, 07:38:50, 1287.39, 716.477
20100413, 07:39:00, 1287.27, 716.598
20100413, 07:39:10, 1287.52, 716.352
20100413, 07:39:20, 1287.52, 716.348
20100413, 07:39:30, 1287.58, 716.293
20100413, 07:39:40, 1287.7, 716.168
20100413, 07:39:50, 1287.59, 716.277
20100413, 07:40:00, 1287.59, 716.277
20100413, 07:40:10, 1287.23, 716.645
20100413, 07:40:20, 1287.24, 716.633
20100413, 07:40:30, 1287.24, 716.629
20100413, 07:40:40, 1287.24, 716.629
20100413, 07:40:50, 1287.24, 716.629
20100413, 07:41:00, 1287.36, 716.508
20100413, 07:41:10, 1287.61, 716.262
20100413, 07:41:20, 1287.5, 716.371
20100413, 07:41:30, 1287.56, 716.312
20100413, 07:41:40, 1287.68, 716.188
20100413, 07:41:50, 1287.21, 716.664
20100413, 07:42:00, 1287.33, 716.539
20100413, 07:42:10, 1287.82, 716.055
20100413, 07:42:20, 1287.09, 716.777
20100413, 07:42:30, 1287.09, 716.777
20100413, 07:42:40, 1287.22, 716.648
20100413, 07:42:50, 1287.11, 716.762
20100413, 07:43:00, 1287.23, 716.637
20100413, 07:43:10, 1287.24, 716.629
20100413, 07:43:20, 1287.12, 716.75
20100413, 07:43:30, 1287.3, 716.57
20100413, 07:43:40, 1287.18, 716.691
20100413, 07:43:50, 1287.31, 716.562
20100413, 07:44:00, 1287.19, 716.684
20100413, 07:44:10, 1287.55, 716.324
20100413, 07:44:20, 1287.55, 716.324
20100413, 07:44:30, 1287.55, 716.324
20100413, 07:44:40, 1287.55, 716.324
20100413, 07:44:50, 1287.19, 716.68
20100413, 07:45:00, 1287.32, 716.555
20100413, 07:45:10, 1287.19, 716.68
20100413, 07:45:20, 1286, 717.875
20100413, 07:45:30, 1284.71, 719.156
20100413, 07:45:40, 1284.71, 719.156
20100413, 07:45:50, 1284.23, 719.637
20100413, 07:46:00, 1284.23, 719.637
20100413, 07:46:10, 1284.61, 719.262
20100413, 07:46:20, 1284.62, 719.254
20100413, 07:46:30, 1284.62, 719.254
20100413, 07:46:40, 1284.5, 719.375
20100413, 07:46:50, 1284.26, 719.613
20100413, 07:47:00, 1284.14, 719.734
20100413, 07:47:10, 1284.14, 719.734
20100413, 07:47:20, 1284.14, 719.734
20100413, 07:47:30, 1284.19, 719.684
20100413, 07:47:40, 1284.2, 719.672
20100413, 07:47:50, 1284.21, 719.66
20100413, 07:48:00, 1284.21, 719.66
20100413, 07:48:10, 1284.09, 719.781
20100413, 07:48:20, 1284.21, 719.66
20100413, 07:48:30, 1284.22, 719.652
20100413, 07:48:40, 1274.36, 729.516
20100413, 07:48:50, 1246.32, 757.551
20100413, 07:49:00, 1230.23, 773.641
20100413, 07:49:10, 1224.08, 779.793
20100413, 07:49:20, 1214.75, 789.125
20100413, 07:49:30, 1207.94, 795.93
20100413, 07:49:40, 1207.7, 796.176
20100413, 07:49:50, 1207.12, 796.754
20100413, 07:50:00, 1207.2, 796.668
20100413, 07:50:10, 1205.61, 798.266
20100413, 07:50:20, 1207.08, 796.793
20100413, 07:50:30, 1207.48, 796.387
20100413, 07:50:40, 1207.61, 796.258
20100413, 07:50:50, 1206.98, 796.895
20100413, 07:51:00, 1206.86, 797.016
20100413, 07:51:10, 1263.74, 740.129
20100413, 07:51:20, 1262.19, 741.684
20100413, 07:51:30, 1259.29, 744.582
20100413, 07:51:40, 1256.65, 747.223
20100413, 07:51:50, 1256.66, 747.215
20100413, 07:52:00, 1256.66, 747.215
20100413, 07:52:10, 1256.9, 746.969
20100413, 07:52:20, 1256.67, 747.203
20100413, 07:52:30, 1256.67, 747.199
20100413, 07:52:40, 1256.68, 747.191
20100413, 07:52:50, 1256.68, 747.188
20100413, 07:53:00, 1256.69, 747.18
20100413, 07:53:10, 1256.71, 747.164
20100413, 07:53:20, 1256.59, 747.281
20100413, 07:53:30, 1256.64, 747.227
20100413, 07:53:40, 1261.84, 742.027
20100413, 07:53:50, 1261.86, 742.016
20100413, 07:54:00, 1261.99, 741.879
20100413, 07:54:10, 1262, 741.875
20100413, 07:54:20, 1262.01, 741.863
20100413, 07:54:30, 1262.01, 741.863
20100413, 07:54:40, 1262.01, 741.863
20100413, 07:54:50, 1262.02, 741.855
20100413, 07:55:00, 1262.03, 741.844
20100413, 07:55:10, 1260.96, 742.914
20100413, 07:55:20, 1260.29, 743.578
20100413, 07:55:30, 1260.67, 743.203
20100413, 07:55:40, 1260.63, 743.238
20100413, 07:55:50, 1261.41, 742.461
20100413, 07:56:00, 1261.54, 742.332
20100413, 07:56:10, 1261.67, 742.203
20100413, 07:56:20, 1261.68, 742.188
20100413, 07:56:30, 1261.69, 742.18
20100413, 07:56:40, 1261.75, 742.121
20100413, 07:56:50, 1261.75, 742.117
20100413, 07:57:00, 1261.79, 742.078
20100413, 07:57:10, 1261.68, 742.195
20100413, 07:57:20, 1261.69, 742.184
20100413, 07:57:30, 1261.81, 742.059
20100413, 07:57:40, 1261.7, 742.176
20100413, 07:57:50, 1261.82, 742.047
20100413, 07:58:00, 1261.82, 742.047
20100413, 07:58:10, 1261.65, 742.219
20100413, 07:58:20, 1261.78, 742.09
20100413, 07:58:30, 1261.83, 742.039
20100413, 07:58:40, 1261.84, 742.031
20100413, 07:58:50, 1261.73, 742.141
20100413, 07:59:00, 1261.85, 742.02
20100413, 07:59:10, 1261.73, 742.137
20100413, 07:59:20, 1261.74, 742.133
20100413, 07:59:30, 1261.75, 742.125
20100413, 07:59:40, 1261.75, 742.117
20100413, 07:59:50, 1261.89, 741.984
20100413, 08:00:00, 1261.77, 742.105
20100413, 08:00:10, 1262.38, 741.496
20100413, 08:00:20, 1262.39, 741.48
20100413, 08:00:30, 1262.45, 741.418
20100413, 08:00:40, 1262.45, 741.418
20100413, 08:00:50, 1262.34, 741.535
20100413, 08:01:00, 1262.34, 741.531
20100413, 08:01:10, 1261.98, 741.891
20100413, 08:01:20, 1261.99, 741.883
20100413, 08:01:30, 1261.88, 741.996
20100413, 08:01:40, 1261.89, 741.98
20100413, 08:01:50, 1261.9, 741.969
20100413, 08:02:00, 1261.91, 741.965
20100413, 08:02:10, 1261.79, 742.082
20100413, 08:02:20, 1261.68, 742.188
20100413, 08:02:30, 1261.86, 742.016
20100413, 08:02:40, 1261.86, 742.008
